{
 "add_total_row": 0, 
 "creation": "2019-03-20 18:22:17.108225", 
 "disable_prepared_report": 0, 
 "disabled": 0, 
 "docstatus": 0, 
 "doctype": "Report", 
 "idx": 0, 
 "is_standard": "Yes", 
 "modified": "2019-03-20 19:02:19.887184", 
 "modified_by": "Administrator", 
 "module": "Schedule Master", 
 "name": "Payment Reminder List", 
 "owner": "Administrator", 
 "prepared_report": 0, 
 "query": "select \n    pr.name as \"Payment Reminder:Link/Payment Reminder:140\",\n    pr.party_type as \"Party Type:Data:100\",\n    pr.party_customer as \"Customer:Link/Customer:140\",\n    pr.party_supplier as \"Supplier:Link/Supplier:140\",\n    pr.total_outstanding_amount as \"Outstanding Amount:Currency:140\",\n    (select idx from `tabReminder Table` where parent = pr.name order by idx desc limit 1 ) as \"Number of Reminders:Int:100\",\n    (select remarks from `tabReminder Table` where parent = pr.name order by idx desc limit 1 ) as \"Feedback From Client:Data:150\",\n    (select reminder_date from `tabReminder Table` where parent = pr.name order by idx desc limit 1 ) as \"Last Reminder:Date:100\"\n    from `tabPayment Reminder` pr where pr.status = 'Open';", 
 "ref_doctype": "Payment Reminder", 
 "report_name": "Payment Reminder List", 
 "report_type": "Query Report", 
 "roles": [
  {
   "role": "Follow Up"
  }
 ]
}